{
    "$id": "https://slalom.com/airports.schema.json",
    "$schema": "https://json-schema.org/draft/2020-12/schema",
    "title": "Airports",
    "description": "A list of IATA/ICAO recognized airports",
    "type": "object",
    "patternProperties": {
        "^[A-Z]{3}$": {
            "description": "A JSON object containing information about an individual airport, keyed by the 3 letter IATA airport code",
            "type": "object",
            "properties": {
                "IATA": {
                    "type": "string",
                    "pattern": "^[A-Z]{3}$",
                    "description": "The 3 letter IATA airport code"
                },
                "ICAO": {
                    "type": "string",
                    "pattern": "^[A-Z]{4}$",
                    "description": "The 4 letter ICAO airport code"
                },
                "name": {
                    "type": "string",
                    "minLength": 1,
                    "description": "The human readable name of the airport"
                }
            },
            "required": [ "IATA", "ICAO", "name" ]
        }
    },
    "additionalProperties": false
}
